{
    "prepare_queue": {
        "installed": [],
        "uninstalled": []
    },
    "config_munge": {
        "files": {}
    },
    "installed_plugins": {
        "uk.co.workingedge.phonegap.plugin.launchnavigator": {
            "PACKAGE_NAME": "com.bastisapp.mobileapp"
        }
    },
    "dependent_plugins": {},
    "modules": [
        {
            "file": "plugins/uk.co.workingedge.phonegap.plugin.launchnavigator/www/common.js",
            "id": "uk.co.workingedge.phonegap.plugin.launchnavigator.Common",
            "pluginId": "uk.co.workingedge.phonegap.plugin.launchnavigator",
            "clobbers": [
                "launchnavigator"
            ]
        },
        {
            "file": "plugins/uk.co.workingedge.phonegap.plugin.launchnavigator/www/localforage.v1.5.0.min.js",
            "id": "uk.co.workingedge.phonegap.plugin.launchnavigator.LocalForage",
            "pluginId": "uk.co.workingedge.phonegap.plugin.launchnavigator",
            "clobbers": [
                "localforage"
            ]
        }
    ],
    "plugin_metadata": {
        "uk.co.workingedge.phonegap.plugin.launchnavigator": "4.2.1"
    }
}